[
  {
    "Name": "Blind",
    "Product code": 1,
    "Cost": 49.99,
    "Description": "Control light and privacy with small adjustment of your shade, a fabric roller that controls light and privacy like a Venetian Blind.",
    "Supplier": "Supplier A"
  },
  {
    "Name": "Couch",
    "Product code": 2,
    "Cost": 449.99,
    "Description": "A smart seating solution for compact spaces, this 2-seater Hygena Evie Sofa in a Box would work perfectly for a flat or small lounge. Quick and easy to assemble, it's neatly packed into two boxes so it will easily fit into most car boots. You also won't have to worry about it not fitting through your front door or hallway when you get home. There's no waiting in for delivery, simply pop in store to pick your sofa up! It's as easy as that!",
    "Supplier": "Supplier B"
  },
  {
    "Name": "Floor Lamp",
    "Product code": 3,
    "Cost": 10,
    "Description": "Has a sleek silver finish and a modern white shade that will make excellent corner lighting. Height 178cm. Diameter of base 21cm.",
    "Supplier": "Supplier A"
  },
  {
    "Name": "Lamp",
    "Product code": 4,
    "Cost": 20,
    "Description": "arge white paper ceiling light shade has been made using simple, paper-folding techniques resulting in a contemporary origami design. The clean lines are sharp and proportional, giving off a beautiful pattern of light around a room.",
    "Supplier": "Supplier A"
  },
  {
    "Name": "Shelf",
    "Product code": 5,
    "Cost": 15,
    "Description": "Easy to fit, this stylish, oak floating shelf is a great space saving addition to your home. Boasting fantastic invisible fixings, this wooden shelf is ideal for decorative displays in all areas of the home.",
    "Supplier": "Supplier A"
  },
  {
    "Name": "Speaker System",
    "Product code": 6,
    "Cost": 149.5,
    "Description": "Connect your smartphone, MP3 player, laptop or memory stick with AUX-in, Bluetooth or USB. It also has a remote, letting you change the track or volume from the comfort of your chair.",
    "Supplier": "Supplier C"
  },
  {
    "Name": "Table",
    "Product code": 7,
    "Cost": 99.99,
    "Description": "Boasting a fashionable chunky design and smooth oak veneer finish, it's super sturdy and easy to wipe clean after family meals. The extra section is stored neatly under the centre of the table and has smart edging that sits flush when extended, matching the rest of the design perfectly.",
    "Supplier": "Supplier B"
  },
  {
    "Name": "TV",
    "Product code": 8,
    "Cost": 350,
    "Description": "With Freeview HD you get instant access to a range of channels instantly. Immerse yourself completely in your viewing experience and enjoy television the way it should be.",
    "Supplier": "Supplier C"
  }
]